-------------------------------------------------------------------------------
Test set: com.agiletestingalliance.TestDuration
-------------------------------------------------------------------------------
Tests run: 1, Failures: 0, Errors: 0, Skipped: 0, Time elapsed: 0.263 sec - in com.agiletestingalliance.TestDuration
